<svg version="2.0" xmlns="http://www.w3.org/2000/svg" width="500" height="500" viewBox="0 0 2200 2200">
  <defs>
    <linearGradient id="linear" x1="0%" y1="0%" x2="0%" y2="100%">
      <stop offset="0%"   stop-color="#D70270"/>
      <stop offset="25%"   stop-color="#D70270"/>
      <stop offset="50%" stop-color="#734F96"/>
      <stop offset="75%" stop-color="#0038A8"/>
      <stop offset="100%" stop-color="#0038A8"/>
    </linearGradient>
    <path id="W" transform="translate(152, 1606) scale(1, -1)" d="M1264 420l196 1036h299l-323 -1456h-302l-237 974l-237 -974h-302l-323 1456h299l197 -1034l240 1034h254z" />
  </defs>
  <g>
    <use href="#W" paint-order="stroke" stroke="url(#linear)" stroke-width="300" fill="#000000"/>
  </g>
</svg>
